<svg xmlns="http://www.w3.org/2000/svg" viewBox="0 0 512 512">
    <path fill="none" stroke="currentColor" stroke-linecap="round"
          stroke-linejoin="round" stroke-width="32"
          d="M416 128L192 384l-96-96"/>
</svg>
